<?xml version="1.0" encoding="UTF-8" ?>
<testsuite tests="2" failures="0" name="com.my.doc.toto.TotoBatchTest" time="0.001" errors="0" skipped="0">
  <properties>
    <property name="java.runtime.name" value="Java(TM) SE Runtime Environment"/>
    <property name="sun.boot.library.path" value="C:\Users\mpigna\outils\jdk-8u221\jre\bin"/>
    <property name="java.vm.version" value="25.221-b11"/>
    <property name="java.vm.vendor" value="Oracle Corporation"/>
    <property name="maven.multiModuleProjectDirectory" value="C:/Users/mpigna/Downloads/doc-apps"/>
    <property name="java.vendor.url" value="http://java.oracle.com/"/>
    <property name="path.separator" value=";"/>
    <property name="guice.disable.misplaced.annotation.check" value="true"/>
    <property name="java.vm.name" value="Java HotSpot(TM) 64-Bit Server VM"/>
    <property name="file.encoding.pkg" value="sun.io"/>
    <property name="user.script" value=""/>
    <property name="user.country" value="FR"/>
    <property name="sun.java.launcher" value="SUN_STANDARD"/>
    <property name="sun.os.patch.level" value=""/>
    <property name="java.vm.specification.name" value="Java Virtual Machine Specification"/>
    <property name="user.dir" value="C:\Users\mpigna\Downloads\doc-apps"/>
    <property name="java.runtime.version" value="1.8.0_221-b11"/>
    <property name="java.awt.graphicsenv" value="sun.awt.Win32GraphicsEnvironment"/>
    <property name="java.endorsed.dirs" value="C:\Users\mpigna\outils\jdk-8u221\jre\lib\endorsed"/>
    <property name="os.arch" value="amd64"/>
    <property name="java.io.tmpdir" value="C:\Users\mpigna\AppData\Local\Temp\"/>
    <property name="line.separator" value="
"/>
    <property name="java.vm.specification.vendor" value="Oracle Corporation"/>
    <property name="user.variant" value=""/>
    <property name="os.name" value="Windows 10"/>
    <property name="classworlds.conf" value="C:/Users/mpigna/outils/apache-maven-3.6.1/bin/m2.conf"/>
    <property name="sun.jnu.encoding" value="Cp1252"/>
    <property name="java.library.path" value="C:\Users\mpigna\outils\jdk-8u221\bin;C:\WINDOWS\Sun\Java\bin;C:\WINDOWS\system32;C:\WINDOWS;C:\Users\mpigna\bin;C:\Users\mpigna\AppData\Local\Programs\Git\mingw64\bin;C:\Users\mpigna\AppData\Local\Programs\Git\usr\local\bin;C:\Users\mpigna\AppData\Local\Programs\Git\usr\bin;C:\Users\mpigna\AppData\Local\Programs\Git\usr\bin;C:\Users\mpigna\AppData\Local\Programs\Git\mingw64\bin;C:\Users\mpigna\AppData\Local\Programs\Git\usr\bin;C:\Users\mpigna\bin;C:\WINDOWS\system32;C:\WINDOWS;C:\WINDOWS\System32\Wbem;C:\WINDOWS\System32\WindowsPowerShell\v1.0;C:\WINDOWS\System32\OpenSSH;C:\Program Files\PuTTY;C:\Users\mpigna\AppData\Local\Continuum\anaconda3\pkgs\graphviz-2.38-hfd603c8_2\Library\bin\graphviz;C:\Users\mpigna\outils\jdk-8u221\bin;C:\Users\mpigna\outils\apache-maven-3.6.1\bin;C:\Users\mpigna\outils\ORACLE_Client\bin;C:\Users\mpigna\AppData\Local\Continuum\anaconda3;C:\Users\mpigna\AppData\Local\Continuum\anaconda3\Library\mingw-w64\bin;C:\Users\mpigna\AppData\Local\Continuum\anaconda3\Library\usr\bin;C:\Users\mpigna\AppData\Local\Continuum\anaconda3\Library\bin;C:\Users\mpigna\AppData\Local\Continuum\anaconda3\Scripts;C:\Users\mpigna\AppData\Local\Microsoft\WindowsApps;C:\Users\mpigna\AppData\Local\Programs\Git\cmd;C:\Users\mpigna\AppData\Local\Programs\Git\usr\bin\vendor_perl;C:\Users\mpigna\AppData\Local\Programs\Git\usr\bin\core_perl;."/>
    <property name="maven.conf" value="C:/Users/mpigna/outils/apache-maven-3.6.1/conf"/>
    <property name="java.specification.name" value="Java Platform API Specification"/>
    <property name="java.class.version" value="52.0"/>
    <property name="sun.management.compiler" value="HotSpot 64-Bit Tiered Compilers"/>
    <property name="os.version" value="10.0"/>
    <property name="library.jansi.path" value="C:/Users/mpigna/outils/apache-maven-3.6.1/lib/jansi-native"/>
    <property name="user.home" value="C:\Users\mpigna"/>
    <property name="user.timezone" value="Europe/Paris"/>
    <property name="java.awt.printerjob" value="sun.awt.windows.WPrinterJob"/>
    <property name="java.specification.version" value="1.8"/>
    <property name="file.encoding" value="Cp1252"/>
    <property name="user.name" value="mpigna"/>
    <property name="java.class.path" value="C:/Users/mpigna/outils/apache-maven-3.6.1/boot/plexus-classworlds-2.6.0.jar"/>
    <property name="java.vm.specification.version" value="1.8"/>
    <property name="sun.arch.data.model" value="64"/>
    <property name="java.home" value="C:\Users\mpigna\outils\jdk-8u221\jre"/>
    <property name="sun.java.command" value="org.codehaus.plexus.classworlds.launcher.Launcher clean install package -Ptarget-preprod"/>
    <property name="java.specification.vendor" value="Oracle Corporation"/>
    <property name="user.language" value="fr"/>
    <property name="awt.toolkit" value="sun.awt.windows.WToolkit"/>
    <property name="java.vm.info" value="mixed mode"/>
    <property name="java.version" value="1.8.0_221"/>
    <property name="java.ext.dirs" value="C:\Users\mpigna\outils\jdk-8u221\jre\lib\ext;C:\WINDOWS\Sun\Java\lib\ext"/>
    <property name="sun.boot.class.path" value="C:\Users\mpigna\outils\jdk-8u221\jre\lib\resources.jar;C:\Users\mpigna\outils\jdk-8u221\jre\lib\rt.jar;C:\Users\mpigna\outils\jdk-8u221\jre\lib\sunrsasign.jar;C:\Users\mpigna\outils\jdk-8u221\jre\lib\jsse.jar;C:\Users\mpigna\outils\jdk-8u221\jre\lib\jce.jar;C:\Users\mpigna\outils\jdk-8u221\jre\lib\charsets.jar;C:\Users\mpigna\outils\jdk-8u221\jre\lib\jfr.jar;C:\Users\mpigna\outils\jdk-8u221\jre\classes"/>
    <property name="java.vendor" value="Oracle Corporation"/>
    <property name="maven.home" value="C:\Users\mpigna\outils\apache-maven-3.6.1"/>
    <property name="file.separator" value="\"/>
    <property name="java.vendor.url.bug" value="http://bugreport.sun.com/bugreport/"/>
    <property name="sun.cpu.endian" value="little"/>
    <property name="sun.io.unicode.encoding" value="UnicodeLittle"/>
    <property name="sun.desktop" value="windows"/>
    <property name="sun.cpu.isalist" value="amd64"/>
  </properties>
  <testcase classname="com.my.doc.toto.TotoBatchTest" name="testGetName" time="0.001"/>
  <testcase classname="com.my.doc.toto.TotoBatchTest" name="testGetAge" time="0"/>
</testsuite>